What You Need To Win A League Of Legends Game
…
Now the strongly correlated pairs are all logical but not
redundant.

Repeat these steps, the finalized reduced dataset is:

LOL <- LOL %>% 
  select(win, bounty_level, kills, assists, champ_level, double_kills, total_damage_dealt_to_champions, vision_score, damage_dealt_to_objectives, inhibitor_kills, killing_sprees, neutral_minions_killed, gold_spent) %>% 
  mutate_if(is.logical, as.factor)
LOL

## # A tibble: 257,525 x 13
##    win   bounty_level kills assists champ_level double_kills total_damage_dealt~
##    <fct>        <dbl> <dbl>   <dbl>       <dbl>        <dbl>               <dbl>
##  1 FALSE            0     1       1          12            0               12495
##  2 TRUE             3    11      15          15            1               31874
##  3 FALSE            0     5       8          16            0               18428
##  4 TRUE             2     9      15          18            0               30897
##  5 FALSE            0     7       4          14            1               25694
##  6 TRUE             0     9       8          15            1               26145
##  7 TRUE             2     4       1          14            0                6436
##  8 TRUE             2    10       9          16            2               22271
##  9 FALSE            0    12       6          16            1               36775
## 10 FALSE            0     4       0          14            0               10410
## # ... with 257,515 more rows, and 6 more variables: vision_score <dbl>,
## #   damage_dealt_to_objectives <dbl>, inhibitor_kills <dbl>,
## #   killing_sprees <dbl>, neutral_minions_killed <dbl>, gold_spent <dbl>
…
